run_cad/apb_bridge_tb.vcd
$date
    Dec 11, 2019  15:57:43
$end
$version
    TOOL:	ncsim(64)	15.20-s060
$end
$timescale
    1 ns
$end

$scope module apb_bridge_tb $end
$var reg       1 !    clk  $end
$var reg       1 "    rst_n  $end
$var reg       2 #    dsel [1:0] $end
$var reg       1 $    trnsfr  $end
$var reg       1 %    wr  $end
$var reg      32 &    address [31:0] $end
$var reg      32 '    data_in [31:0] $end
$var reg      32 (    data_out [31:0] $end
$var reg       1 )    mem_wr  $end
$var reg       1 *    mem_rd  $end
$var reg       4 +    mem_be [3:0] $end
$var reg      32 ,    mem_address [31:0] $end
$var reg      32 -    mem_data_in [31:0] $end
$var reg      32 .    mem_data_out [31:0] $end

$scope module test_bus $end
$var wire      1 /    clk  $end
$var wire      1 0    rst_n  $end
$var wire      2 1    dsel [1:0] $end
$var wire      1 2    trnsfr  $end
$var wire      1 3    wr  $end
$var wire     32 4    address [31:0] $end
$var wire     32 5    data_in [31:0] $end
$var reg      32 6    data_out [31:0] $end
$var reg       1 7    mem_wr  $end
$var reg       1 8    mem_rd  $end
$var reg       4 9    mem_be [3:0] $end
$var reg      32 :    mem_address [31:0] $end
$var reg      32 ;    mem_data_in [31:0] $end
$var wire     32 <    mem_data_out [31:0] $end
$var reg       1 =    sel  $end
$var reg       1 >    enable  $end
$var reg       1 ?    write  $end
$var reg       4 @    strb [3:0] $end
$var reg      32 A    addr [31:0] $end
$var reg      32 B    wdata [31:0] $end
$var reg       1 C    ready  $end
$var reg       1 D    slverr  $end
$var reg      32 E    rdata [31:0] $end
$upscope $end


$scope module apb2apb $end

$scope module pbus $end
$var wire      1 /    clk  $end
$var wire      1 0    rst_n  $end
$var wire      2 1    dsel [1:0] $end
$var wire      1 2    trnsfr  $end
$var wire      1 3    wr  $end
$var wire     32 4    address [31:0] $end
$var wire     32 5    data_in [31:0] $end
$var reg      32 F    data_out [31:0] $end
$var reg       1 G    mem_wr  $end
$var reg       1 H    mem_rd  $end
$var reg       4 I    mem_be [3:0] $end
$var reg      32 J    mem_address [31:0] $end
$var reg      32 K    mem_data_in [31:0] $end
$var wire     32 <    mem_data_out [31:0] $end
$var reg       1 L    sel  $end
$var reg       1 M    enable  $end
$var reg       1 N    write  $end
$var reg       4 O    strb [3:0] $end
$var reg      32 P    addr [31:0] $end
$var reg      32 Q    wdata [31:0] $end
$var reg       1 R    ready  $end
$var reg       1 S    slverr  $end
$var reg      32 T    rdata [31:0] $end
$upscope $end


$scope module pmaster $end
$var reg       2 U    m_state [1:0] $end
$var reg       2 V    m_nxt_state [1:0] $end
$var reg       2 W    strb_reg [1:0] $end
$var reg       1 X    wr_reg  $end
$var reg      32 Y    address_reg [31:0] $end
$var reg      32 Z    data_in_reg [31:0] $end
$upscope $end


$scope module pslave $end
$var reg       1 [    ready_reg  $end
$var reg       1 \    slverr_reg  $end
$var reg      32 ]    rdata_reg [31:0] $end
$var reg      32 ^    rdata_filt_reg [31:0] $end
$upscope $end

$upscope $end


$scope module mem_bus $end
$var wire      1 _    clk  $end
$var wire      1 `    mem_wr  $end
$var wire      1 a    mem_rd  $end
$var wire      4 b    mem_be [3:0] $end
$var wire     32 c    mem_address [31:0] $end
$var wire     32 d    mem_data_in [31:0] $end
$var reg      32 e    mem_data_out [31:0] $end
$upscope $end


$scope module memory $end

$scope begin genblk1[0] $end
$var parameter 32 f    k [31:0] $end
$upscope $end


$scope begin genblk1[1] $end
$var parameter 32 g    k [31:0] $end
$upscope $end


$scope begin genblk1[2] $end
$var parameter 32 h    k [31:0] $end
$upscope $end


$scope begin genblk1[3] $end
$var parameter 32 i    k [31:0] $end
$upscope $end


$scope begin genblk2[0] $end
$var parameter 32 j    m [31:0] $end
$upscope $end


$scope begin genblk2[1] $end
$var parameter 32 k    m [31:0] $end
$upscope $end


$scope begin genblk2[2] $end
$var parameter 32 l    m [31:0] $end
$upscope $end


$scope begin genblk2[3] $end
$var parameter 32 m    m [31:0] $end
$upscope $end

$upscope $end


$scope task single_write $end
$var reg      32 n    address_sr [31:0] $end
$var reg       2 o    dsel_sw [1:0] $end
$var reg      32 p    data_sr [31:0] $end
$upscope $end


$scope task single_read $end
$var reg      32 q    address_sr [31:0] $end
$var reg       2 r    dsel_sr [1:0] $end
$upscope $end


$scope task burst_write $end
$var reg      32 s    address_sr [31:0] $end
$var reg       2 t    dsel_bw [1:0] $end
$var reg      32 u    data_sr [31:0] $end
$var integer  32 v    count  $end
$upscope $end


$scope task burst_read $end
$var reg      32 w    address_sr [31:0] $end
$var reg       2 x    dsel_br [1:0] $end
$var integer  32 y    count  $end
$upscope $end

$upscope $end

$enddefinitions $end
$dumpvars
b11 m
b10 l
b1 k
b0 j
b11 i
b10 h
b1 g
b0 f
0!
0"
b0 #
0$
0%
b0 &
b0 '
b0 (
0)
0*
b0 +
b0 ,
b0 -
b0 .
0/
00
b0 1
02
03
b0 4
b0 5
b0 6
07
08
b0 9
b0 :
b0 ;
b0 <
x=
x>
x?
bx @
bx A
bx B
xC
xD
bx E
b0 F
0G
0H
b0 I
b0 J
b0 K
0L
0M
0N
b0 O
b0 P
b0 Q
0R
0S
b0 T
b0 U
b0 V
b0 W
0X
b0 Y
b0 Z
0[
0\
b0 ]
b0 ^
0_
0`
0a
b0 b
b0 c
b0 d
b0 e
b0 n
b0 o
b0 p
b0 q
b0 r
b0 s
b0 t
b0 u
b0 v
b0 w
b0 x
b0 y
$end
#5
1!
1_
1/
#10
0!
0_
0/
#15
1!
1_
1/
#20
0!
0_
0/
#25
1!
1_
1/
#30
0!
0_
0/
#35
1!
1_
1/
#40
0!
0_
0/
#45
1!
b11110000 n
b10100011001000010000 p
1_
1/
1"
10
#50
0!
0_
0/
#55
1!
1_
1/
1$
1%
b11110000 &
b10100011001000010000 '
b10100011001000010000 5
b11110000 4
13
12
b1 V
#60
0!
0_
0/
#65
1!
1_
1/
0$
0%
b1 U
1X
b11110000 Y
b10100011001000010000 Z
b10 V
1L
b11110000 P
1N
b10100011001000010000 Q
03
02
#70
0!
0_
0/
#75
1!
1_
1/
1G
b11110000 J
b10100011001000010000 K
b10 U
1M
b1111 O
b10100011001000010000 ;
b11110000 :
17
1)
b11110000 ,
b10100011001000010000 -
b10100011001000010000 d
b11110000 c
1`
b11111111111111111111111111111111 ^
#80
0!
0_
0/
#85
1!
1_
1/
1[
b1111 I
1R
b0 V
b1111 9
b1111 +
b1111 b
#90
0!
0_
0/
#95
1!
b11110001 n
b10100011001000010001 p
1_
1/
b0 U
0L
0M
0N
b0 O
b0 P
b0 Q
0R
b0 ^
#100
0!
0_
0/
#105
1!
1_
1/
1$
1%
b11110001 &
b10100011001000010001 '
0[
0G
b0 I
b0 J
b0 K
b10100011001000010001 5
b11110001 4
13
12
b1 V
b0 ;
b0 :
b0 9
07
0)
b0 +
b0 ,
b0 -
b0 d
b0 c
b0 b
0`
#110
0!
0_
0/
#115
1!
1_
1/
0$
0%
b1 U
b11110001 Y
b10100011001000010001 Z
b10 V
1L
b11110001 P
1N
b10100011001000010001 Q
03
02
#120
0!
0_
0/
#125
1!
1_
1/
1G
b11110001 J
b10100011001000010001 K
b10 U
1M
b1111 O
b10100011001000010001 ;
b11110001 :
17
1)
b11110001 ,
b10100011001000010001 -
b10100011001000010001 d
b11110001 c
1`
b11111111111111111111111111111111 ^
#130
0!
0_
0/
#135
1!
1_
1/
1[
b1111 I
1R
b0 V
b1111 9
b1111 +
b1111 b
#140
0!
0_
0/
#145
1!
b11110010 n
b10100011001000010010 p
1_
1/
b0 U
0L
0M
0N
b0 O
b0 P
b0 Q
0R
b0 ^
#150
0!
0_
0/
#155
1!
1_
1/
1$
1%
b11110010 &
b10100011001000010010 '
0[
0G
b0 I
b0 J
b0 K
b10100011001000010010 5
b11110010 4
13
12
b1 V
b0 ;
b0 :
b0 9
07
0)
b0 +
b0 ,
b0 -
b0 d
b0 c
b0 b
0`
#160
0!
0_
0/
#165
1!
1_
1/
0$
0%
b1 U
b11110010 Y
b10100011001000010010 Z
b10 V
1L
b11110010 P
1N
b10100011001000010010 Q
03
02
#170
0!
0_
0/
#175
1!
1_
1/
1G
b11110010 J
b10100011001000010010 K
b10 U
1M
b1111 O
b10100011001000010010 ;
b11110010 :
17
1)
b11110010 ,
b10100011001000010010 -
b10100011001000010010 d
b11110010 c
1`
b11111111111111111111111111111111 ^
#180
0!
0_
0/
#185
1!
1_
1/
1[
b1111 I
1R
b0 V
b1111 9
b1111 +
b1111 b
#190
0!
0_
0/
#195
1!
b11110011 n
b10100011001000010011 p
1_
1/
b0 U
0L
0M
0N
b0 O
b0 P
b0 Q
0R
b0 ^
#200
0!
0_
0/
#205
1!
1_
1/
1$
1%
b11110011 &
b10100011001000010011 '
0[
0G
b0 I
b0 J
b0 K
b10100011001000010011 5
b11110011 4
13
12
b1 V
b0 ;
b0 :
b0 9
07
0)
b0 +
b0 ,
b0 -
b0 d
b0 c
b0 b
0`
#210
0!
0_
0/
#215
1!
1_
1/
0$
0%
b1 U
b11110011 Y
b10100011001000010011 Z
b10 V
1L
b11110011 P
1N
b10100011001000010011 Q
03
02
#220
0!
0_
0/
#225
1!
1_
1/
1G
b11110011 J
b10100011001000010011 K
b10 U
1M
b1111 O
b10100011001000010011 ;
b11110011 :
17
1)
b11110011 ,
b10100011001000010011 -
b10100011001000010011 d
b11110011 c
1`
b11111111111111111111111111111111 ^
#230
0!
0_
0/
#235
1!
1_
1/
1[
b1111 I
1R
b0 V
b1111 9
b1111 +
b1111 b
#240
0!
0_
0/
#245
1!
b11110100 n
b10100011001000010100 p
1_
1/
b0 U
0L
0M
0N
b0 O
b0 P
b0 Q
0R
b0 ^
#250
0!
0_
0/
#255
1!
1_
1/
1$
1%
b11110100 &
b10100011001000010100 '
0[
0G
b0 I
b0 J
b0 K
b10100011001000010100 5
b11110100 4
13
12
b1 V
b0 ;
b0 :
b0 9
07
0)
b0 +
b0 ,
b0 -
b0 d
b0 c
b0 b
0`
#260
0!
0_
0/
#265
1!
1_
1/
0$
0%
b1 U
b11110100 Y
b10100011001000010100 Z
b10 V
1L
b11110100 P
1N
b10100011001000010100 Q
03
02
#270
0!
0_
0/
#275
1!
1_
1/
1G
b11110100 J
b10100011001000010100 K
b10 U
1M
b1111 O
b10100011001000010100 ;
b11110100 :
17
1)
b11110100 ,
b10100011001000010100 -
b10100011001000010100 d
b11110100 c
1`
b11111111111111111111111111111111 ^
#280
0!
0_
0/
#285
1!
1_
1/
1[
b1111 I
1R
b0 V
b1111 9
b1111 +
b1111 b
#290
0!
0_
0/
#295
1!
b11110101 n
b10100011001000010101 p
1_
1/
b0 U
0L
0M
0N
b0 O
b0 P
b0 Q
0R
b0 ^
#300
0!
0_
0/
#305
1!
1_
1/
1$
1%
b11110101 &
b10100011001000010101 '
0[
0G
b0 I
b0 J
b0 K
b10100011001000010101 5
b11110101 4
13
12
b1 V
b0 ;
b0 :
b0 9
07
0)
b0 +
b0 ,
b0 -
b0 d
b0 c
b0 b
0`
#310
0!
0_
0/
#315
1!
1_
1/
0$
0%
b1 U
b11110101 Y
b10100011001000010101 Z
b10 V
1L
b11110101 P
1N
b10100011001000010101 Q
03
02
#320
0!
0_
0/
#325
1!
1_
1/
1G
b11110101 J
b10100011001000010101 K
b10 U
1M
b1111 O
b10100011001000010101 ;
b11110101 :
17
1)
b11110101 ,
b10100011001000010101 -
b10100011001000010101 d
b11110101 c
1`
b11111111111111111111111111111111 ^
#330
0!
0_
0/
#335
1!
1_
1/
1[
b1111 I
1R
b0 V
b1111 9
b1111 +
b1111 b
#340
0!
0_
0/
#345
1!
b11110110 n
b10100011001000010110 p
1_
1/
b0 U
0L
0M
0N
b0 O
b0 P
b0 Q
0R
b0 ^
#350
0!
0_
0/
#355
1!
1_
1/
1$
1%
b11110110 &
b10100011001000010110 '
0[
0G
b0 I
b0 J
b0 K
b10100011001000010110 5
b11110110 4
13
12
b1 V
b0 ;
b0 :
b0 9
07
0)
b0 +
b0 ,
b0 -
b0 d
b0 c
b0 b
0`
#360
0!
0_
0/
#365
1!
1_
1/
0$
0%
b1 U
b11110110 Y
b10100011001000010110 Z
b10 V
1L
b11110110 P
1N
b10100011001000010110 Q
03
02
#370
0!
0_
0/
#375
1!
1_
1/
1G
b11110110 J
b10100011001000010110 K
b10 U
1M
b1111 O
b10100011001000010110 ;
b11110110 :
17
1)
b11110110 ,
b10100011001000010110 -
b10100011001000010110 d
b11110110 c
1`
b11111111111111111111111111111111 ^
#380
0!
0_
0/
#385
1!
1_
1/
1[
b1111 I
1R
b0 V
b1111 9
b1111 +
b1111 b
#390
0!
0_
0/
#395
1!
b11110111 n
b10100011001000010111 p
1_
1/
b0 U
0L
0M
0N
b0 O
b0 P
b0 Q
0R
b0 ^
#400
0!
0_
0/
#405
1!
1_
1/
1$
1%
b11110111 &
b10100011001000010111 '
0[
0G
b0 I
b0 J
b0 K
b10100011001000010111 5
b11110111 4
13
12
b1 V
b0 ;
b0 :
b0 9
07
0)
b0 +
b0 ,
b0 -
b0 d
b0 c
b0 b
0`
#410
0!
0_
0/
#415
1!
1_
1/
0$
0%
b1 U
b11110111 Y
b10100011001000010111 Z
b10 V
1L
b11110111 P
1N
b10100011001000010111 Q
03
02
#420
0!
0_
0/
#425
1!
1_
1/
1G
b11110111 J
b10100011001000010111 K
b10 U
1M
b1111 O
b10100011001000010111 ;
b11110111 :
17
1)
b11110111 ,
b10100011001000010111 -
b10100011001000010111 d
b11110111 c
1`
b11111111111111111111111111111111 ^
#430
0!
0_
0/
#435
1!
1_
1/
1[
b1111 I
1R
b0 V
b1111 9
b1111 +
b1111 b
#440
0!
0_
0/
#445
1!
b11111000 n
b10100011001000011000 p
1_
1/
b0 U
0L
0M
0N
b0 O
b0 P
b0 Q
0R
b0 ^
#450
0!
0_
0/
#455
1!
1_
1/
1$
1%
b11111000 &
b10100011001000011000 '
0[
0G
b0 I
b0 J
b0 K
b10100011001000011000 5
b11111000 4
13
12
b1 V
b0 ;
b0 :
b0 9
07
0)
b0 +
b0 ,
b0 -
b0 d
b0 c
b0 b
0`
#460
0!
0_
0/
#465
1!
1_
1/
0$
0%
b1 U
b11111000 Y
b10100011001000011000 Z
b10 V
1L
b11111000 P
1N
b10100011001000011000 Q
03
02
#470
0!
0_
0/
#475
1!
1_
1/
1G
b11111000 J
b10100011001000011000 K
b10 U
1M
b1111 O
b10100011001000011000 ;
b11111000 :
17
1)
b11111000 ,
b10100011001000011000 -
b10100011001000011000 d
b11111000 c
1`
b11111111111111111111111111111111 ^
#480
0!
0_
0/
#485
1!
1_
1/
1[
b1111 I
1R
b0 V
b1111 9
b1111 +
b1111 b
#490
0!
0_
0/
#495
1!
b11111001 n
b10100011001000011001 p
1_
1/
b0 U
0L
0M
0N
b0 O
b0 P
b0 Q
0R
b0 ^
#500
0!
0_
0/
#505
1!
1_
1/
1$
1%
b11111001 &
b10100011001000011001 '
0[
0G
b0 I
b0 J
b0 K
b10100011001000011001 5
b11111001 4
13
12
b1 V
b0 ;
b0 :
b0 9
07
0)
b0 +
b0 ,
b0 -
b0 d
b0 c
b0 b
0`
#510
0!
0_
0/
#515
1!
1_
1/
0$
0%
b1 U
b11111001 Y
b10100011001000011001 Z
b10 V
1L
b11111001 P
1N
b10100011001000011001 Q
03
02
#520
0!
0_
0/
#525
1!
1_
1/
1G
b11111001 J
b10100011001000011001 K
b10 U
1M
b1111 O
b10100011001000011001 ;
b11111001 :
17
1)
b11111001 ,
b10100011001000011001 -
b10100011001000011001 d
b11111001 c
1`
b11111111111111111111111111111111 ^
#530
0!
0_
0/
#535
1!
1_
1/
1[
b1111 I
1R
b0 V
b1111 9
b1111 +
b1111 b
#540
0!
0_
0/
#545
1!
b11110000 q
1_
1/
b0 U
0L
0M
0N
b0 O
b0 P
b0 Q
0R
b0 ^
#550
0!
0_
0/
#555
1!
1_
1/
1$
b11110000 &
0[
0G
b0 I
b0 J
b0 K
b11110000 4
12
b1 V
b0 ;
b0 :
b0 9
07
0)
b0 +
b0 ,
b0 -
b0 d
b0 c
b0 b
0`
#560
0!
0_
0/
#565
1!
1_
1/
0$
b1 U
0X
b11110000 Y
b10 V
1L
b11110000 P
02
#570
0!
0_
0/
#575
1!
1_
1/
1H
b11110000 J
b10 U
1M
b1111 O
b11110000 :
18
1*
b11110000 ,
b11110000 c
1a
b10100000000000000000 e
b10100011001000000000 e
b10100011001000010000 e
b10100011001000010000 .
b10100011001000010000 <
b11111111111111111111111111111111 ^
#580
0!
0_
0/
#585
1!
1_
1/
1[
b10100011001000010000 ]
1R
b10100011001000010000 T
b0 V
b10100011001000010000 F
b10100011001000010000 6
b10100011001000010000 (
#590
0!
0_
0/
#595
1!
b11110001 q
1_
1/
b0 U
0L
0M
b0 O
b0 P
b0 F
0R
b0 T
b0 6
b0 (
b0 ^
#600
0!
0_
0/
#605
1!
1_
1/
1$
b11110001 &
0[
b0 ]
0H
b0 J
b11110001 4
12
b1 V
b0 :
08
0*
b0 ,
b0 c
0a
b11001000010000 e
b10000 e
b0 e
b0 .
b0 <
#610
0!
0_
0/
#615
1!
1_
1/
0$
b1 U
b11110001 Y
b10 V
1L
b11110001 P
02
#620
0!
0_
0/
#625
1!
1_
1/
1H
b11110001 J
b10 U
1M
b1111 O
b11110001 :
18
1*
b11110001 ,
b11110001 c
1a
b10100000000000000000 e
b10100011001000000000 e
b10100011001000010001 e
b10100011001000010001 .
b10100011001000010001 <
b11111111111111111111111111111111 ^
#630
0!
0_
0/
#635
1!
1_
1/
1[
b10100011001000010001 ]
1R
b10100011001000010001 T
b0 V
b10100011001000010001 F
b10100011001000010001 6
b10100011001000010001 (
#640
0!
0_
0/
#645
1!
b11110010 q
1_
1/
b0 U
0L
0M
b0 O
b0 P
b0 F
0R
b0 T
b0 6
b0 (
b0 ^
#650
0!
0_
0/
#655
1!
1_
1/
1$
b11110010 &
0[
b0 ]
0H
b0 J
b11110010 4
12
b1 V
b0 :
08
0*
b0 ,
b0 c
0a
b11001000010001 e
b10001 e
b0 e
b0 .
b0 <
#660
0!
0_
0/
#665
1!
1_
1/
0$
b1 U
b11110010 Y
b10 V
1L
b11110010 P
02
#670
0!
0_
0/
#675
1!
1_
1/
1H
b11110010 J
b10 U
1M
b1111 O
b11110010 :
18
1*
b11110010 ,
b11110010 c
1a
b10100000000000000000 e
b10100011001000000000 e
b10100011001000010010 e
b10100011001000010010 .
b10100011001000010010 <
b11111111111111111111111111111111 ^
#680
0!
0_
0/
#685
1!
1_
1/
1[
b10100011001000010010 ]
1R
b10100011001000010010 T
b0 V
b10100011001000010010 F
b10100011001000010010 6
b10100011001000010010 (
#690
0!
0_
0/
#695
1!
b11110011 q
1_
1/
b0 U
0L
0M
b0 O
b0 P
b0 F
0R
b0 T
b0 6
b0 (
b0 ^
#700
0!
0_
0/
#705
1!
1_
1/
1$
b11110011 &
0[
b0 ]
0H
b0 J
b11110011 4
12
b1 V
b0 :
08
0*
b0 ,
b0 c
0a
b11001000010010 e
b10010 e
b0 e
b0 .
b0 <
#710
0!
0_
0/
#715
1!
1_
1/
0$
b1 U
b11110011 Y
b10 V
1L
b11110011 P
02
#720
0!
0_
0/
#725
1!
1_
1/
1H
b11110011 J
b10 U
1M
b1111 O
b11110011 :
18
1*
b11110011 ,
b11110011 c
1a
b10100000000000000000 e
b10100011001000000000 e
b10100011001000010011 e
b10100011001000010011 .
b10100011001000010011 <
b11111111111111111111111111111111 ^
#730
0!
0_
0/
#735
1!
1_
1/
1[
b10100011001000010011 ]
1R
b10100011001000010011 T
b0 V
b10100011001000010011 F
b10100011001000010011 6
b10100011001000010011 (
#740
0!
0_
0/
#745
1!
b11110100 q
1_
1/
b0 U
0L
0M
b0 O
b0 P
b0 F
0R
b0 T
b0 6
b0 (
b0 ^
#750
0!
0_
0/
#755
1!
1_
1/
1$
b11110100 &
0[
b0 ]
0H
b0 J
b11110100 4
12
b1 V
b0 :
08
0*
b0 ,
b0 c
0a
b11001000010011 e
b10011 e
b0 e
b0 .
b0 <
#760
0!
0_
0/
#765
1!
1_
1/
0$
b1 U
b11110100 Y
b10 V
1L
b11110100 P
02
#770
0!
0_
0/
#775
1!
1_
1/
1H
b11110100 J
b10 U
1M
b1111 O
b11110100 :
18
1*
b11110100 ,
b11110100 c
1a
b10100000000000000000 e
b10100011001000000000 e
b10100011001000010100 e
b10100011001000010100 .
b10100011001000010100 <
b11111111111111111111111111111111 ^
#780
0!
0_
0/
#785
1!
1_
1/
1[
b10100011001000010100 ]
1R
b10100011001000010100 T
b0 V
b10100011001000010100 F
b10100011001000010100 6
b10100011001000010100 (
#790
0!
0_
0/
#795
1!
b11110101 q
1_
1/
b0 U
0L
0M
b0 O
b0 P
b0 F
0R
b0 T
b0 6
b0 (
b0 ^
#800
0!
0_
0/
#805
1!
1_
1/
1$
b11110101 &
0[
b0 ]
0H
b0 J
b11110101 4
12
b1 V
b0 :
08
0*
b0 ,
b0 c
0a
b11001000010100 e
b10100 e
b0 e
b0 .
b0 <
#810
0!
0_
0/
#815
1!
1_
1/
0$
b1 U
b11110101 Y
b10 V
1L
b11110101 P
02
#820
0!
0_
0/
#825
1!
1_
1/
1H
b11110101 J
b10 U
1M
b1111 O
b11110101 :
18
1*
b11110101 ,
b11110101 c
1a
b10100000000000000000 e
b10100011001000000000 e
b10100011001000010101 e
b10100011001000010101 .
b10100011001000010101 <
b11111111111111111111111111111111 ^
#830
0!
0_
0/
#835
1!
1_
1/
1[
b10100011001000010101 ]
1R
b10100011001000010101 T
b0 V
b10100011001000010101 F
b10100011001000010101 6
b10100011001000010101 (
#840
0!
0_
0/
#845
1!
b11110110 q
1_
1/
b0 U
0L
0M
b0 O
b0 P
b0 F
0R
b0 T
b0 6
b0 (
b0 ^
#850
0!
0_
0/
#855
1!
1_
1/
1$
b11110110 &
0[
b0 ]
0H
b0 J
b11110110 4
12
b1 V
b0 :
08
0*
b0 ,
b0 c
0a
b11001000010101 e
b10101 e
b0 e
b0 .
b0 <
#860
0!
0_
0/
#865
1!
1_
1/
0$
b1 U
b11110110 Y
b10 V
1L
b11110110 P
02
#870
0!
0_
0/
#875
1!
1_
1/
1H
b11110110 J
b10 U
1M
b1111 O
b11110110 :
18
1*
b11110110 ,
b11110110 c
1a
b10100000000000000000 e
b10100011001000000000 e
b10100011001000010110 e
b10100011001000010110 .
b10100011001000010110 <
b11111111111111111111111111111111 ^
#880
0!
0_
0/
#885
1!
1_
1/
1[
b10100011001000010110 ]
1R
b10100011001000010110 T
b0 V
b10100011001000010110 F
b10100011001000010110 6
b10100011001000010110 (
#890
0!
0_
0/
#895
1!
b11110111 q
1_
1/
b0 U
0L
0M
b0 O
b0 P
b0 F
0R
b0 T
b0 6
b0 (
b0 ^
#900
0!
0_
0/
#905
1!
1_
1/
1$
b11110111 &
0[
b0 ]
0H
b0 J
b11110111 4
12
b1 V
b0 :
08
0*
b0 ,
b0 c
0a
b11001000010110 e
b10110 e
b0 e
b0 .
b0 <
#910
0!
0_
0/
#915
1!
1_
1/
0$
b1 U
b11110111 Y
b10 V
1L
b11110111 P
02
#920
0!
0_
0/
#925
1!
1_
1/
1H
b11110111 J
b10 U
1M
b1111 O
b11110111 :
18
1*
b11110111 ,
b11110111 c
1a
b10100000000000000000 e
b10100011001000000000 e
b10100011001000010111 e
b10100011001000010111 .
b10100011001000010111 <
b11111111111111111111111111111111 ^
#930
0!
0_
0/
#935
1!
1_
1/
1[
b10100011001000010111 ]
1R
b10100011001000010111 T
b0 V
b10100011001000010111 F
b10100011001000010111 6
b10100011001000010111 (
#940
0!
0_
0/
#945
1!
b11111000 q
1_
1/
b0 U
0L
0M
b0 O
b0 P
b0 F
0R
b0 T
b0 6
b0 (
b0 ^
#950
0!
0_
0/
#955
1!
1_
1/
1$
b11111000 &
0[
b0 ]
0H
b0 J
b11111000 4
12
b1 V
b0 :
08
0*
b0 ,
b0 c
0a
b11001000010111 e
b10111 e
b0 e
b0 .
b0 <
#960
0!
0_
0/
#965
1!
1_
1/
0$
b1 U
b11111000 Y
b10 V
1L
b11111000 P
02
#970
0!
0_
0/
#975
1!
1_
1/
1H
b11111000 J
b10 U
1M
b1111 O
b11111000 :
18
1*
b11111000 ,
b11111000 c
1a
b10100000000000000000 e
b10100011001000000000 e
b10100011001000011000 e
b10100011001000011000 .
b10100011001000011000 <
b11111111111111111111111111111111 ^
#980
0!
0_
0/
#985
1!
1_
1/
1[
b10100011001000011000 ]
1R
b10100011001000011000 T
b0 V
b10100011001000011000 F
b10100011001000011000 6
b10100011001000011000 (
#990
0!
0_
0/
#995
1!
b11111001 q
1_
1/
b0 U
0L
0M
b0 O
b0 P
b0 F
0R
b0 T
b0 6
b0 (
b0 ^
#1000
0!
0_
0/
#1005
1!
1_
1/
1$
b11111001 &
0[
b0 ]
0H
b0 J
b11111001 4
12
b1 V
b0 :
08
0*
b0 ,
b0 c
0a
b11001000011000 e
b11000 e
b0 e
b0 .
b0 <
#1010
0!
0_
0/
#1015
1!
1_
1/
0$
b1 U
b11111001 Y
b10 V
1L
b11111001 P
02
#1020
0!
0_
0/
#1025
1!
1_
1/
1H
b11111001 J
b10 U
1M
b1111 O
b11111001 :
18
1*
b11111001 ,
b11111001 c
1a
b10100000000000000000 e
b10100011001000000000 e
b10100011001000011001 e
b10100011001000011001 .
b10100011001000011001 <
b11111111111111111111111111111111 ^
#1030
0!
0_
0/
#1035
1!
1_
1/
1[
b10100011001000011001 ]
1R
b10100011001000011001 T
b0 V
b10100011001000011001 F
b10100011001000011001 6
b10100011001000011001 (
#1040
0!
0_
0/
#1045
1!
1_
1/
b0 U
0L
0M
b0 O
b0 P
b0 F
0R
b0 T
b0 6
b0 (
b0 ^
#1050
0!
0_
0/
#1055
1!
1_
1/
0[
b0 ]
0H
b0 J
b0 :
08
0*
b0 ,
b0 c
0a
b11001000011001 e
b11001 e
b0 e
b0 .
b0 <
#1060
0!
0_
0/
#1065
1!
1_
1/
#1070
0!
0_
0/
#1075
1!
1_
1/
#1080
0!
0_
0/
#1085
1!
1_
1/
#1090
0!
0_
0/
#1095
1!
b10010 n
b1 o
b1010001000011111100101100101001 p
1_
1/
#1100
0!
0_
0/
#1105
1!
1_
1/
1$
1%
b1 #
b10010 &
b1010001000011111100101100101001 '
b1010001000011111100101100101001 5
b10010 4
b1 1
13
12
b1 V
#1110
0!
0_
0/
#1115
1!
1_
1/
0$
0%
b1 U
1X
b1001 Y
b1010001000011111100101100101001 Z
b10 V
1L
b1001 P
1N
b1010001000011111100101100101001 Q
03
02
#1120
0!
0_
0/
#1125
1!
1_
1/
1G
b1001 J
b1010001000011111100101100101001 K
b10 U
1M
b11 O
b1010001000011111100101100101001 ;
b1001 :
17
1)
b1001 ,
b1010001000011111100101100101001 -
b1010001000011111100101100101001 d
b1001 c
1`
b1111111111111111 ^
#1130
0!
0_
0/
#1135
1!
1_
1/
1[
b11 I
1R
b0 V
b11 9
b11 +
b11 b
#1140
0!
0_
0/
#1145
1!
b10011 n
b1010001000011111100101100101010 p
1_
1/
b0 U
0L
0M
0N
b0 O
b0 P
b0 Q
0R
b0 ^
#1150
0!
0_
0/
#1155
1!
1_
1/
1$
1%
b10011 &
b1010001000011111100101100101010 '
0[
0G
b0 I
b0 J
b0 K
b1010001000011111100101100101010 5
b10011 4
13
12
b1 V
b0 ;
b0 :
b0 9
07
0)
b0 +
b0 ,
b0 -
b0 d
b0 c
b0 b
0`
#1160
0!
0_
0/
#1165
1!
1_
1/
0$
0%
b1 U
b10 W
b1010001000011111100101100101010 Z
b10 V
1L
b1001 P
1N
b11001011001010100000000000000000 Q
03
02
#1170
0!
0_
0/
#1175
1!
1_
1/
1G
b1001 J
b11001011001010100000000000000000 K
b10 U
1M
b1100 O
b11001011001010100000000000000000 ;
b1001 :
17
1)
b1001 ,
b11001011001010100000000000000000 -
b11001011001010100000000000000000 d
b1001 c
1`
b11111111111111110000000000000000 ^
#1180
0!
0_
0/
#1185
1!
1_
1/
1[
b1100 I
1R
b0 V
b1100 9
b1100 +
b1100 b
#1190
0!
0_
0/
#1195
1!
b10100 n
b1010001000011111100101100101011 p
1_
1/
b0 U
0L
0M
0N
b0 O
b0 P
b0 Q
0R
b0 ^
#1200
0!
0_
0/
#1205
1!
1_
1/
1$
1%
b10100 &
b1010001000011111100101100101011 '
0[
0G
b0 I
b0 J
b0 K
b1010001000011111100101100101011 5
b10100 4
13
12
b1 V
b0 ;
b0 :
b0 9
07
0)
b0 +
b0 ,
b0 -
b0 d
b0 c
b0 b
0`
#1210
0!
0_
0/
#1215
1!
1_
1/
0$
0%
b1 U
b0 W
b1010 Y
b1010001000011111100101100101011 Z
b10 V
1L
b1010 P
1N
b1010001000011111100101100101011 Q
03
02
#1220
0!
0_
0/
#1225
1!
1_
1/
1G
b1010 J
b1010001000011111100101100101011 K
b10 U
1M
b11 O
b1010001000011111100101100101011 ;
b1010 :
17
1)
b1010 ,
b1010001000011111100101100101011 -
b1010001000011111100101100101011 d
b1010 c
1`
b1111111111111111 ^
#1230
0!
0_
0/
#1235
1!
1_
1/
1[
b11 I
1R
b0 V
b11 9
b11 +
b11 b
#1240
0!
0_
0/
#1245
1!
b10101 n
b1010001000011111100101100101100 p
1_
1/
b0 U
0L
0M
0N
b0 O
b0 P
b0 Q
0R
b0 ^
#1250
0!
0_
0/
#1255
1!
1_
1/
1$
1%
b10101 &
b1010001000011111100101100101100 '
0[
0G
b0 I
b0 J
b0 K
b1010001000011111100101100101100 5
b10101 4
13
12
b1 V
b0 ;
b0 :
b0 9
07
0)
b0 +
b0 ,
b0 -
b0 d
b0 c
b0 b
0`
#1260
0!
0_
0/
