run_viv/apb_bridge_tb.vcd
$date
   Wed Dec 25 16:01:13 2019
$end
$version
  2019.2
$end
$timescale
  1ns
$end
$scope module apb_bridge_tb $end
$var reg 1 ! clk $end
$var reg 1 " rst_n $end
$var reg 2 # dsel [1:0] $end
$var reg 1 $ trnsfr $end
$var reg 1 % wr $end
$var reg 32 & address [31:0] $end
$var reg 32 ' data_in [31:0] $end
$var reg 32 ( data_out [31:0] $end
$var reg 1 ) mem_wr $end
$var reg 1 * mem_rd $end
$var reg 4 + mem_be [3:0] $end
$var reg 32 , mem_address [31:0] $end
$var reg 32 - mem_data_in [31:0] $end
$var reg 32 . mem_data_out [31:0] $end
$var reg 32 / write_data_in [31:0] $end
$var reg 32 0 write_addr_in [31:0] $end
$var reg 32 1 read_data_out [31:0] $end
$var reg 32 2 read_addr_in [31:0] $end
$scope module test_bus $end
$var wire 1 3 clk $end
$var wire 1 4 rst_n $end
$var wire 2 5 dsel [1:0] $end
$var wire 1 6 trnsfr $end
$var wire 1 7 wr $end
$var wire 32 8 address [31:0] $end
$var wire 32 9 data_in [31:0] $end
$var reg 32 ( data_out [31:0] $end
$var reg 1 ) mem_wr $end
$var reg 1 * mem_rd $end
$var reg 4 + mem_be [3:0] $end
$var reg 32 , mem_address [31:0] $end
$var reg 32 - mem_data_in [31:0] $end
$var wire 32 : mem_data_out [31:0] $end
$var reg 1 ; sel $end
$var reg 1 < enable $end
$var reg 1 = write $end
$var reg 4 > strb [3:0] $end
$var reg 32 ? addr [31:0] $end
$var reg 32 @ wdata [31:0] $end
$var reg 1 A ready $end
$var reg 1 B slverr $end
$var reg 32 C rdata [31:0] $end
$scope module bridge $end
$var wire 1 3 clk $end
$var wire 1 4 rst_n $end
$var wire 2 5 dsel [1:0] $end
$var wire 1 6 trnsfr $end
$var wire 1 7 wr $end
$var wire 32 8 address [31:0] $end
$var wire 32 9 data_in [31:0] $end
$var reg 32 ( data_out [31:0] $end
$var reg 1 ) mem_wr $end
$var reg 1 * mem_rd $end
$var reg 4 + mem_be [3:0] $end
$var reg 32 , mem_address [31:0] $end
$var reg 32 - mem_data_in [31:0] $end
$var wire 32 : mem_data_out [31:0] $end
$upscope $end
$scope module master $end
$var wire 1 3 clk $end
$var wire 1 4 rst_n $end
$var wire 2 5 dsel [1:0] $end
$var wire 1 6 trnsfr $end
$var wire 1 7 wr $end
$var wire 32 8 address [31:0] $end
$var wire 32 9 data_in [31:0] $end
$var reg 32 ( data_out [31:0] $end
$var reg 1 ; sel $end
$var reg 1 < enable $end
$var reg 1 = write $end
$var reg 4 > strb [3:0] $end
$var reg 32 ? addr [31:0] $end
$var reg 32 @ wdata [31:0] $end
$var reg 1 A ready $end
$var reg 1 B slverr $end
$var reg 32 C rdata [31:0] $end
$upscope $end
$scope module slave $end
$var wire 1 3 clk $end
$var wire 1 4 rst_n $end
$var wire 1 6 trnsfr $end
$var reg 1 ) mem_wr $end
$var reg 1 * mem_rd $end
$var reg 4 + mem_be [3:0] $end
$var reg 32 , mem_address [31:0] $end
$var reg 32 - mem_data_in [31:0] $end
$var wire 32 : mem_data_out [31:0] $end
$var reg 1 ; sel $end
$var reg 1 < enable $end
$var reg 1 = write $end
$var reg 4 > strb [3:0] $end
$var reg 32 ? addr [31:0] $end
$var reg 32 @ wdata [31:0] $end
$var reg 1 A ready $end
$var reg 1 B slverr $end
$var reg 32 C rdata [31:0] $end
$upscope $end
$upscope $end
$scope module mem_bus $end
$var wire 1 D clk $end
$var wire 1 E mem_wr $end
$var wire 1 F mem_rd $end
$var wire 4 G mem_be [3:0] $end
$var wire 32 H mem_address [31:0] $end
$var wire 32 I mem_data_in [31:0] $end
$var reg 32 . mem_data_out [31:0] $end
$scope module mem $end
$var wire 1 D clk $end
$var wire 1 E mem_wr $end
$var wire 1 F mem_rd $end
$var wire 4 G mem_be [3:0] $end
$var wire 32 H mem_address [31:0] $end
$var wire 32 I mem_data_in [31:0] $end
$var reg 32 . mem_data_out [31:0] $end
$upscope $end
$upscope $end
$scope module apb2apb $end
$scope module ibus $end
$var wire 1 3 clk $end
$var wire 1 4 rst_n $end
$var wire 2 5 dsel [1:0] $end
$var wire 1 6 trnsfr $end
$var wire 1 7 wr $end
$var wire 32 8 address [31:0] $end
$var wire 32 9 data_in [31:0] $end
$var reg 32 ( data_out [31:0] $end
$var reg 1 ) mem_wr $end
$var reg 1 * mem_rd $end
$var reg 4 + mem_be [3:0] $end
$var reg 32 , mem_address [31:0] $end
$var reg 32 - mem_data_in [31:0] $end
$var wire 32 : mem_data_out [31:0] $end
$var reg 1 ; sel $end
$var reg 1 < enable $end
$var reg 1 = write $end
$var reg 4 > strb [3:0] $end
$var reg 32 ? addr [31:0] $end
$var reg 32 @ wdata [31:0] $end
$var reg 1 A ready $end
$var reg 1 B slverr $end
$var reg 32 C rdata [31:0] $end
$scope module bridge $end
$var wire 1 3 clk $end
$var wire 1 4 rst_n $end
$var wire 2 5 dsel [1:0] $end
$var wire 1 6 trnsfr $end
$var wire 1 7 wr $end
$var wire 32 8 address [31:0] $end
$var wire 32 9 data_in [31:0] $end
$var reg 32 ( data_out [31:0] $end
$var reg 1 ) mem_wr $end
$var reg 1 * mem_rd $end
$var reg 4 + mem_be [3:0] $end
$var reg 32 , mem_address [31:0] $end
$var reg 32 - mem_data_in [31:0] $end
$var wire 32 : mem_data_out [31:0] $end
$upscope $end
$scope module master $end
$var wire 1 3 clk $end
$var wire 1 4 rst_n $end
$var wire 2 5 dsel [1:0] $end
$var wire 1 6 trnsfr $end
$var wire 1 7 wr $end
$var wire 32 8 address [31:0] $end
$var wire 32 9 data_in [31:0] $end
$var reg 32 ( data_out [31:0] $end
$var reg 1 ; sel $end
$var reg 1 < enable $end
$var reg 1 = write $end
$var reg 4 > strb [3:0] $end
$var reg 32 ? addr [31:0] $end
$var reg 32 @ wdata [31:0] $end
$var reg 1 A ready $end
$var reg 1 B slverr $end
$var reg 32 C rdata [31:0] $end
$upscope $end
$scope module slave $end
$var wire 1 3 clk $end
$var wire 1 4 rst_n $end
$var wire 1 6 trnsfr $end
$var reg 1 ) mem_wr $end
$var reg 1 * mem_rd $end
$var reg 4 + mem_be [3:0] $end
$var reg 32 , mem_address [31:0] $end
$var reg 32 - mem_data_in [31:0] $end
$var wire 32 : mem_data_out [31:0] $end
$var reg 1 ; sel $end
$var reg 1 < enable $end
$var reg 1 = write $end
$var reg 4 > strb [3:0] $end
$var reg 32 ? addr [31:0] $end
$var reg 32 @ wdata [31:0] $end
$var reg 1 A ready $end
$var reg 1 B slverr $end
$var reg 32 C rdata [31:0] $end
$upscope $end
$upscope $end
$scope module pbus $end
$var wire 1 J clk $end
$var wire 1 K rst_n $end
$var wire 2 L dsel [1:0] $end
$var wire 1 M trnsfr $end
$var wire 1 N wr $end
$var wire 32 O address [31:0] $end
$var wire 32 P data_in [31:0] $end
$var reg 32 Q data_out [31:0] $end
$var reg 1 R mem_wr $end
$var reg 1 S mem_rd $end
$var reg 4 T mem_be [3:0] $end
$var reg 32 U mem_address [31:0] $end
$var reg 32 V mem_data_in [31:0] $end
$var wire 32 W mem_data_out [31:0] $end
$var reg 1 X sel $end
$var reg 1 Y enable $end
$var reg 1 Z write $end
$var reg 4 [ strb [3:0] $end
$var reg 32 \ addr [31:0] $end
$var reg 32 ] wdata [31:0] $end
$var reg 1 ^ ready $end
$var reg 1 _ slverr $end
$var reg 32 ` rdata [31:0] $end
$scope module bridge $end
$var wire 1 J clk $end
$var wire 1 K rst_n $end
$var wire 2 L dsel [1:0] $end
$var wire 1 M trnsfr $end
$var wire 1 N wr $end
$var wire 32 O address [31:0] $end
$var wire 32 P data_in [31:0] $end
$var reg 32 Q data_out [31:0] $end
$var reg 1 R mem_wr $end
$var reg 1 S mem_rd $end
$var reg 4 T mem_be [3:0] $end
$var reg 32 U mem_address [31:0] $end
$var reg 32 V mem_data_in [31:0] $end
$var wire 32 W mem_data_out [31:0] $end
$upscope $end
$scope module master $end
$var wire 1 J clk $end
$var wire 1 K rst_n $end
$var wire 2 L dsel [1:0] $end
$var wire 1 M trnsfr $end
$var wire 1 N wr $end
$var wire 32 O address [31:0] $end
$var wire 32 P data_in [31:0] $end
$var reg 32 Q data_out [31:0] $end
$var reg 1 X sel $end
$var reg 1 Y enable $end
$var reg 1 Z write $end
$var reg 4 [ strb [3:0] $end
$var reg 32 \ addr [31:0] $end
$var reg 32 ] wdata [31:0] $end
$var reg 1 ^ ready $end
$var reg 1 _ slverr $end
$var reg 32 ` rdata [31:0] $end
$upscope $end
$scope module slave $end
$var wire 1 J clk $end
$var wire 1 K rst_n $end
$var wire 1 M trnsfr $end
$var reg 1 R mem_wr $end
$var reg 1 S mem_rd $end
$var reg 4 T mem_be [3:0] $end
$var reg 32 U mem_address [31:0] $end
$var reg 32 V mem_data_in [31:0] $end
$var wire 32 W mem_data_out [31:0] $end
$var reg 1 X sel $end
$var reg 1 Y enable $end
$var reg 1 Z write $end
$var reg 4 [ strb [3:0] $end
$var reg 32 \ addr [31:0] $end
$var reg 32 ] wdata [31:0] $end
$var reg 1 ^ ready $end
$var reg 1 _ slverr $end
$var reg 32 ` rdata [31:0] $end
$upscope $end
$upscope $end
$scope module pmaster $end
$var reg 2 a m_state [1:0] $end
$var reg 2 b m_nxt_state [1:0] $end
$var reg 2 c strb_reg [1:0] $end
$var reg 1 d wr_reg $end
$var reg 32 e address_reg [31:0] $end
$var reg 32 f base_addr_reg [31:0] $end
$var reg 32 g data_in_reg [31:0] $end
$var reg 3 h timeout_reg [2:0] $end
$var reg 1 i timeout_trig $end
$scope module mbus $end
$var wire 1 J clk $end
$var wire 1 K rst_n $end
$var wire 2 L dsel [1:0] $end
$var wire 1 M trnsfr $end
$var wire 1 N wr $end
$var wire 32 O address [31:0] $end
$var wire 32 P data_in [31:0] $end
$var reg 32 Q data_out [31:0] $end
$var reg 1 R mem_wr $end
$var reg 1 S mem_rd $end
$var reg 4 T mem_be [3:0] $end
$var reg 32 U mem_address [31:0] $end
$var reg 32 V mem_data_in [31:0] $end
$var wire 32 W mem_data_out [31:0] $end
$var reg 1 X sel $end
$var reg 1 Y enable $end
$var reg 1 Z write $end
$var reg 4 [ strb [3:0] $end
$var reg 32 \ addr [31:0] $end
$var reg 32 ] wdata [31:0] $end
$var reg 1 ^ ready $end
$var reg 1 _ slverr $end
$var reg 32 ` rdata [31:0] $end
$scope module bridge $end
$var wire 1 J clk $end
$var wire 1 K rst_n $end
$var wire 2 L dsel [1:0] $end
$var wire 1 M trnsfr $end
$var wire 1 N wr $end
$var wire 32 O address [31:0] $end
$var wire 32 P data_in [31:0] $end
$var reg 32 Q data_out [31:0] $end
$var reg 1 R mem_wr $end
$var reg 1 S mem_rd $end
$var reg 4 T mem_be [3:0] $end
$var reg 32 U mem_address [31:0] $end
$var reg 32 V mem_data_in [31:0] $end
$var wire 32 W mem_data_out [31:0] $end
$upscope $end
$scope module master $end
$var wire 1 J clk $end
$var wire 1 K rst_n $end
$var wire 2 L dsel [1:0] $end
$var wire 1 M trnsfr $end
$var wire 1 N wr $end
$var wire 32 O address [31:0] $end
$var wire 32 P data_in [31:0] $end
$var reg 32 Q data_out [31:0] $end
$var reg 1 X sel $end
$var reg 1 Y enable $end
$var reg 1 Z write $end
$var reg 4 [ strb [3:0] $end
$var reg 32 \ addr [31:0] $end
$var reg 32 ] wdata [31:0] $end
$var reg 1 ^ ready $end
$var reg 1 _ slverr $end
$var reg 32 ` rdata [31:0] $end
$upscope $end
$scope module slave $end
$var wire 1 J clk $end
$var wire 1 K rst_n $end
$var wire 1 M trnsfr $end
$var reg 1 R mem_wr $end
$var reg 1 S mem_rd $end
$var reg 4 T mem_be [3:0] $end
$var reg 32 U mem_address [31:0] $end
$var reg 32 V mem_data_in [31:0] $end
$var wire 32 W mem_data_out [31:0] $end
$var reg 1 X sel $end
$var reg 1 Y enable $end
$var reg 1 Z write $end
$var reg 4 [ strb [3:0] $end
$var reg 32 \ addr [31:0] $end
$var reg 32 ] wdata [31:0] $end
$var reg 1 ^ ready $end
$var reg 1 _ slverr $end
$var reg 32 ` rdata [31:0] $end
$upscope $end
$upscope $end
$upscope $end
$scope module pslave $end
$var reg 1 j ready_reg $end
$var reg 1 k slverr_reg $end
$var reg 32 l rdata_reg [31:0] $end
$var reg 32 m rdata_filt_reg [31:0] $end
$scope module sbus $end
$var wire 1 J clk $end
$var wire 1 K rst_n $end
$var wire 2 L dsel [1:0] $end
$var wire 1 M trnsfr $end
$var wire 1 N wr $end
$var wire 32 O address [31:0] $end
$var wire 32 P data_in [31:0] $end
$var reg 32 Q data_out [31:0] $end
$var reg 1 R mem_wr $end
$var reg 1 S mem_rd $end
$var reg 4 T mem_be [3:0] $end
$var reg 32 U mem_address [31:0] $end
$var reg 32 V mem_data_in [31:0] $end
$var wire 32 W mem_data_out [31:0] $end
$var reg 1 X sel $end
$var reg 1 Y enable $end
$var reg 1 Z write $end
$var reg 4 [ strb [3:0] $end
$var reg 32 \ addr [31:0] $end
$var reg 32 ] wdata [31:0] $end
$var reg 1 ^ ready $end
$var reg 1 _ slverr $end
$var reg 32 ` rdata [31:0] $end
$scope module bridge $end
$var wire 1 J clk $end
$var wire 1 K rst_n $end
$var wire 2 L dsel [1:0] $end
$var wire 1 M trnsfr $end
$var wire 1 N wr $end
$var wire 32 O address [31:0] $end
$var wire 32 P data_in [31:0] $end
$var reg 32 Q data_out [31:0] $end
$var reg 1 R mem_wr $end
$var reg 1 S mem_rd $end
$var reg 4 T mem_be [3:0] $end
$var reg 32 U mem_address [31:0] $end
$var reg 32 V mem_data_in [31:0] $end
$var wire 32 W mem_data_out [31:0] $end
$upscope $end
$scope module master $end
$var wire 1 J clk $end
$var wire 1 K rst_n $end
$var wire 2 L dsel [1:0] $end
$var wire 1 M trnsfr $end
$var wire 1 N wr $end
$var wire 32 O address [31:0] $end
$var wire 32 P data_in [31:0] $end
$var reg 32 Q data_out [31:0] $end
$var reg 1 X sel $end
$var reg 1 Y enable $end
$var reg 1 Z write $end
$var reg 4 [ strb [3:0] $end
$var reg 32 \ addr [31:0] $end
$var reg 32 ] wdata [31:0] $end
$var reg 1 ^ ready $end
$var reg 1 _ slverr $end
$var reg 32 ` rdata [31:0] $end
$upscope $end
$scope module slave $end
$var wire 1 J clk $end
$var wire 1 K rst_n $end
$var wire 1 M trnsfr $end
$var reg 1 R mem_wr $end
$var reg 1 S mem_rd $end
$var reg 4 T mem_be [3:0] $end
$var reg 32 U mem_address [31:0] $end
$var reg 32 V mem_data_in [31:0] $end
$var wire 32 W mem_data_out [31:0] $end
$var reg 1 X sel $end
$var reg 1 Y enable $end
$var reg 1 Z write $end
$var reg 4 [ strb [3:0] $end
$var reg 32 \ addr [31:0] $end
$var reg 32 ] wdata [31:0] $end
$var reg 1 ^ ready $end
$var reg 1 _ slverr $end
$var reg 32 ` rdata [31:0] $end
$upscope $end
$upscope $end
$upscope $end
$upscope $end
$scope module memory $end
$scope module membus $end
$var wire 1 D clk $end
$var wire 1 E mem_wr $end
$var wire 1 F mem_rd $end
$var wire 4 G mem_be [3:0] $end
$var wire 32 H mem_address [31:0] $end
$var wire 32 I mem_data_in [31:0] $end
$var reg 32 . mem_data_out [31:0] $end
$scope module mem $end
$var wire 1 D clk $end
$var wire 1 E mem_wr $end
$var wire 1 F mem_rd $end
$var wire 4 G mem_be [3:0] $end
$var wire 32 H mem_address [31:0] $end
$var wire 32 I mem_data_in [31:0] $end
$var reg 32 . mem_data_out [31:0] $end
$upscope $end
$upscope $end
$scope begin Block42_9 $end
$var reg 32 n i $end
$scope begin Block44_10 $end
$var reg 32 o j $end
$upscope $end
$upscope $end
$upscope $end
$scope begin Block94_22 $end
$var reg 32 p i $end
$upscope $end
$scope begin Block99_23 $end
$var reg 32 q i $end
$upscope $end
$scope begin Block106_24 $end
$var reg 32 r i $end
$upscope $end
$scope begin Block111_25 $end
$var reg 32 s i $end
$upscope $end
$scope begin Block118_26 $end
$var reg 32 t i $end
$upscope $end
$scope begin Block123_27 $end
$var reg 32 u i $end
$upscope $end
$scope begin Block132_28 $end
$var reg 32 v i $end
$upscope $end
$scope begin Block138_29 $end
$var reg 32 w i $end
$upscope $end
$scope begin Block144_30 $end
$var reg 32 x i $end
$upscope $end
$scope begin Block183_31 $end
$var reg 32 y i $end
$upscope $end
$scope begin Block188_32 $end
$var reg 32 z i $end
$upscope $end
$scope begin Block198_34 $end
$var reg 32 { wmemtrnsf_fd $end
$scope begin Block198_35 $end
$var reg 32 | i2 $end
$scope begin Block198_36 $end
$var reg 32 } i1 $end
$upscope $end
$upscope $end
$upscope $end
$scope task async_reset $end
$upscope $end
$scope task single_write $end
$var reg 32 ~ address_sw [31:0] $end
$var reg 2 !! dsel_sw [1:0] $end
$var reg 32 "! data_sw [31:0] $end
$upscope $end
$scope task single_read $end
$var reg 32 #! address_sr [31:0] $end
$var reg 2 $! dsel_sr [1:0] $end
$upscope $end
$scope task burst_write $end
$var reg 32 %! address_bw [31:0] $end
$var reg 2 &! dsel_bw [1:0] $end
$var reg 32 '! data_bw [31:0] $end
$var reg 32 (! count $end
$scope begin Block305_44 $end
$var reg 32 )! i $end
$upscope $end
$scope begin Block314_46 $end
$var reg 32 *! i $end
$upscope $end
$scope begin Block327_48 $end
$var reg 32 +! i $end
$upscope $end
$upscope $end
$scope task burst_read $end
$var reg 32 ,! address_sr [31:0] $end
$var reg 2 -! dsel_br [1:0] $end
$var reg 32 .! count $end
$scope begin Block357_50 $end
$var reg 32 /! i $end
$upscope $end
$scope begin Block365_52 $end
$var reg 32 0! i $end
$upscope $end
$scope begin Block378_54 $end
$var reg 32 1! i $end
$upscope $end
$upscope $end
$scope task write_access_timeout $end
$var reg 32 2! address_sw [31:0] $end
$var reg 2 3! dsel_sw [1:0] $end
$var reg 32 4! data_sw [31:0] $end
$upscope $end
$scope task read_access_timeout $end
$var reg 32 5! address_sw [31:0] $end
$var reg 2 6! dsel_sw [1:0] $end
$upscope $end
$upscope $end
$enddefinitions $end
#0
$dumpvars
0!
b0 !!
0"
b0 "!
b0 #
b0 #!
0$
b0 $!
0%
b0 %!
b0 &
b0 &!
b0 '
b0 '!
b0 (
b0 (!
0)
b0 )!
0*
b0 *!
b0 +
b0 +!
b0 ,
b0 ,!
b0 -
b0 -!
b0 .
b0 .!
bx /
b0 /!
bx 0
b0 0!
bx 1
b0 1!
bx 2
b0 2!
03
b0 3!
04
b0 4!
b0 5
b0 5!
06
b0 6!
07
b0 8
b0 9
b0 :
x;
x<
x=
bx >
bx ?
bx @
xA
xB
bx C
0D
0E
0F
b0 G
b0 H
b0 I
0J
0K
b0 L
0M
0N
b0 O
b0 P
b0 Q
0R
0S
b0 T
b0 U
b0 V
b0 W
0X
0Y
0Z
b0 [
b0 \
b0 ]
0^
0_
b0 `
b0 a
b0 b
b0 c
0d
b0 e
b0 f
b0 g
b0 h
0i
0j
0k
b0 l
b0 m
b100 n
b100000000 o
b0 p
b0 q
b0 r
b0 s
b0 t
b0 u
b0 v
b0 w
b0 x
b0 y
b0 z
b0 {
b0 |
b0 }
b0 ~
$end
#5
1!
13
1D
1J
0R
0S
b0 T
b0 U
b0 V
b0 a
b0 c
0d
b0 e
b0 f
b0 g
b0 h
0j
0k
b0 l
#10
0!
03
0D
0J
#15
1!
13
1D
1J
0R
0S
b0 T
b0 U
b0 V
b0 a
b0 c
0d
b0 e
b0 f
b0 g
b0 h
0j
0k
b0 l
#20
0!
03
0D
0J
#25
1!
13
1D
1J
0R
0S
b0 T
b0 U
b0 V
b0 a
b0 c
0d
b0 e
b0 f
b0 g
b0 h
0j
0k
b0 l
#30
0!
03
0D
0J
#35
1!
13
1D
1J
0R
0S
b0 T
b0 U
b0 V
b0 a
b0 c
0d
b0 e
b0 f
b0 g
b0 h
0j
0k
b0 l
#40
0!
03
0D
0J
#45
1!
b0 !!
1"
b10100011001000010000 "!
13
14
1D
1J
1K
0R
0S
b0 T
b0 U
b0 V
b0 a
b0 c
0d
b0 e
b0 f
b0 g
b0 h
0j
0k
b0 l
b0 p
b10001000000000000000011110000 ~
#50
0!
03
0D
0J
#55
1!
b0 #
1$
1%
b10001000000000000000011110000 &
b10100011001000010000 '
13
16
17
b10001000000000000000011110000 8
b10100011001000010000 9
1D
1J
1M
1N
b10001000000000000000011110000 O
b10100011001000010000 P
0R
0S
b0 T
b0 U
b0 V
b0 a
b1 b
b0 c
0d
b0 e
b0 f
b0 g
b0 h
0j
0k
b0 l
#60
0!
03
0D
0J
#65
1!
0$
0%
13
06
07
1D
1J
0M
0N
b0 Q
0R
0S
b0 T
b0 U
b0 V
1X
1Z
b0 [
b11110000 \
b10100011001000010000 ]
b0 `
b1 a
b10 b
b0 c
1d
b10001000000000000000011110000 e
b10001000000000000000000000000 f
b10100011001000010000 g
b0 h
0j
0k
b0 l
#70
0!
03
0D
0J
#75
1!
1)
b11110000 ,
b10100011001000010000 -
b0 .
13
1D
1E
b11110000 H
b10100011001000010000 I
1J
b0 Q
1R
0S
b0 T
b11110000 U
b10100011001000010000 V
1Y
b1111 [
b11110000 \
b10100011001000010000 ]
b0 `
b10 a
b10 b
b0 c
1d
b10001000000000000000011110000 e
b10001000000000000000000000000 f
b10100011001000010000 g
b0 h
0j
0k
b0 l
b11111111111111111111111111111111 m
#80
0!
03
0D
0J
#85
1!
b1111 +
13
1D
b1111 G
1J
b0 Q
1R
0S
b1111 T
b11110000 U
b10100011001000010000 V
b1111 [
b11110000 \
b10100011001000010000 ]
1^
b0 `
b10 a
b0 b
b0 c
1d
b10001000000000000000011110000 e
b10001000000000000000000000000 f
b10100011001000010000 g
b0 h
1j
0k
b0 l
#90
0!
b10100011001000010000 /
b11110000 0
03
0D
0J
#95
1!
b0 !!
b10100011001000010001 "!
b0 .
13
1D
1J
b0 Q
1R
0S
b1111 T
b11110000 U
b10100011001000010000 V
0X
0Y
0Z
b0 [
b0 \
b0 ]
0^
b0 `
b0 a
b0 b
b0 c
1d
b10001000000000000000011110000 e
b10001000000000000000000000000 f
b10100011001000010000 g
b0 h
1j
0k
b0 l
b0 m
b1 p
b10001000000000000000011110001 ~
#100
0!
03
0D
0J
#105
1!
b0 #
1$
1%
b10001000000000000000011110001 &
b10100011001000010001 '
0)
b0 +
b0 ,
b0 -
b0 .
13
16
17
b10001000000000000000011110001 8
b10100011001000010001 9
1D
0E
b0 G
b0 H
b0 I
1J
1M
1N
b10001000000000000000011110001 O
b10100011001000010001 P
0R
0S
b0 T
b0 U
b0 V
b0 `
b0 a
b1 b
b0 c
1d
b10001000000000000000011110000 e
b10001000000000000000000000000 f
b10100011001000010000 g
b0 h
0j
0k
b0 l
#110
0!
03
0D
0J
#115
1!
0$
0%
13
06
07
1D
1J
0M
0N
b0 Q
0R
0S
b0 T
b0 U
b0 V
1X
1Z
b0 [
b11110001 \
b10100011001000010001 ]
b0 `
b1 a
b10 b
b0 c
1d
b10001000000000000000011110001 e
b10001000000000000000000000000 f
b10100011001000010001 g
b0 h
0j
0k
b0 l
#120
0!
03
0D
0J
#125
1!
1)
b11110001 ,
b10100011001000010001 -
b0 .
13
1D
1E
b11110001 H
b10100011001000010001 I
1J
b0 Q
1R
0S
b0 T
b11110001 U
b10100011001000010001 V
1Y
b1111 [
b11110001 \
b10100011001000010001 ]
b0 `
b10 a
b10 b
b0 c
1d
b10001000000000000000011110001 e
b10001000000000000000000000000 f
b10100011001000010001 g
b0 h
0j
0k
b0 l
b11111111111111111111111111111111 m
#130
0!
03
0D
0J
#135
1!
b1111 +
13
1D
b1111 G
1J
b0 Q
1R
0S
b1111 T
b11110001 U
b10100011001000010001 V
b1111 [
b11110001 \
b10100011001000010001 ]
1^
b0 `
b10 a
b0 b
b0 c
1d
b10001000000000000000011110001 e
b10001000000000000000000000000 f
b10100011001000010001 g
b0 h
1j
0k
b0 l
#140
0!
b10100011001000010001 /
b11110001 0
03
0D
0J
#145
1!
b0 !!
b10100011001000010010 "!
b0 .
13
1D
1J
b0 Q
1R
0S
b1111 T
b11110001 U
b10100011001000010001 V
0X
0Y
0Z
b0 [
b0 \
b0 ]
0^
b0 `
b0 a
b0 b
b0 c
1d
b10001000000000000000011110001 e
b10001000000000000000000000000 f
b10100011001000010001 g
b0 h
1j
0k
b0 l
b0 m
b10 p
b10001000000000000000011110010 ~
#150
0!
03
0D
0J
#155
1!
b0 #
1$
1%
b10001000000000000000011110010 &
b10100011001000010010 '
0)
b0 +
b0 ,
b0 -
b0 .
13
16
17
b10001000000000000000011110010 8
b10100011001000010010 9
1D
0E
b0 G
b0 H
b0 I
1J
1M
1N
b10001000000000000000011110010 O
b10100011001000010010 P
0R
0S
b0 T
b0 U
b0 V
b0 `
b0 a
b1 b
b0 c
1d
b10001000000000000000011110001 e
b10001000000000000000000000000 f
b10100011001000010001 g
b0 h
0j
0k
b0 l
#160
0!
03
0D
0J
#165
1!
0$
0%
13
06
07
1D
1J
0M
0N
b0 Q
0R
0S
b0 T
b0 U
b0 V
1X
1Z
b0 [
b11110010 \
b10100011001000010010 ]
b0 `
b1 a
b10 b
b0 c
1d
b10001000000000000000011110010 e
b10001000000000000000000000000 f
b10100011001000010010 g
b0 h
0j
0k
b0 l
#170
0!
03
0D
0J
#175
1!
1)
b11110010 ,
b10100011001000010010 -
b0 .
13
1D
1E
b11110010 H
b10100011001000010010 I
1J
b0 Q
1R
0S
b0 T
b11110010 U
b10100011001000010010 V
1Y
b1111 [
b11110010 \
b10100011001000010010 ]
b0 `
b10 a
b10 b
b0 c
1d
b10001000000000000000011110010 e
b10001000000000000000000000000 f
b10100011001000010010 g
b0 h
0j
0k
b0 l
b11111111111111111111111111111111 m
#180
0!
03
0D
0J
#185
1!
b1111 +
13
1D
b1111 G
1J
b0 Q
1R
0S
b1111 T
b11110010 U
b10100011001000010010 V
b1111 [
b11110010 \
b10100011001000010010 ]
1^
b0 `
b10 a
b0 b
b0 c
1d
b10001000000000000000011110010 e
b10001000000000000000000000000 f
b10100011001000010010 g
b0 h
1j
0k
b0 l
#190
0!
b10100011001000010010 /
b11110010 0
03
0D
0J
#195
1!
b0 !!
b10100011001000010011 "!
b0 .
13
1D
1J
b0 Q
1R
0S
b1111 T
b11110010 U
b10100011001000010010 V
0X
0Y
0Z
b0 [
b0 \
b0 ]
0^
b0 `
b0 a
b0 b
b0 c
1d
b10001000000000000000011110010 e
b10001000000000000000000000000 f
b10100011001000010010 g
b0 h
1j
0k
b0 l
b0 m
b11 p
b10001000000000000000011110011 ~
#200
0!
03
0D
0J
#205
1!
b0 #
1$
1%
b10001000000000000000011110011 &
b10100011001000010011 '
0)
b0 +
b0 ,
b0 -
b0 .
13
16
17
b10001000000000000000011110011 8
b10100011001000010011 9
1D
0E
b0 G
b0 H
b0 I
1J
1M
1N
b10001000000000000000011110011 O
b10100011001000010011 P
0R
0S
b0 T
b0 U
b0 V
b0 `
b0 a
b1 b
b0 c
1d
b10001000000000000000011110010 e
b10001000000000000000000000000 f
b10100011001000010010 g
b0 h
0j
0k
b0 l
#210
0!
03
0D
0J
#215
1!
0$
0%
13
06
07
1D
1J
0M
0N
b0 Q
0R
0S
b0 T
b0 U
b0 V
1X
1Z
b0 [
b11110011 \
b10100011001000010011 ]
b0 `
b1 a
b10 b
b0 c
1d
b10001000000000000000011110011 e
b10001000000000000000000000000 f
b10100011001000010011 g
b0 h
0j
0k
b0 l
#220
0!
03
0D
0J
#225
1!
1)
b11110011 ,
b10100011001000010011 -
b0 .
13
1D
1E
b11110011 H
b10100011001000010011 I
1J
b0 Q
1R
0S
b0 T
b11110011 U
b10100011001000010011 V
1Y
b1111 [
b11110011 \
b10100011001000010011 ]
b0 `
b10 a
b10 b
b0 c
1d
b10001000000000000000011110011 e
b10001000000000000000000000000 f
b10100011001000010011 g
b0 h
0j
0k
b0 l
b11111111111111111111111111111111 m
#230
0!
03
0D
0J
#235
1!
b1111 +
13
1D
b1111 G
1J
b0 Q
1R
0S
b1111 T
b11110011 U
b10100011001000010011 V
b1111 [
b11110011 \
b10100011001000010011 ]
1^
b0 `
b10 a
b0 b
b0 c
1d
b10001000000000000000011110011 e
b10001000000000000000000000000 f
b10100011001000010011 g
b0 h
1j
0k
b0 l
#240
0!
b10100011001000010011 /
b11110011 0
03
0D
0J
#245
1!
b0 !!
b10100011001000010100 "!
b0 .
13
1D
1J
b0 Q
1R
0S
b1111 T
b11110011 U
b10100011001000010011 V
0X
0Y
0Z
b0 [
b0 \
b0 ]
0^
b0 `
b0 a
b0 b
b0 c
1d
b10001000000000000000011110011 e
b10001000000000000000000000000 f
b10100011001000010011 g
b0 h
1j
0k
b0 l
b0 m
b100 p
b10001000000000000000011110100 ~
#250
0!
03
0D
0J
#255
1!
b0 #
1$
1%
b10001000000000000000011110100 &
b10100011001000010100 '
0)
b0 +
b0 ,
b0 -
b0 .
13
16
17
b10001000000000000000011110100 8
b10100011001000010100 9
1D
0E
b0 G
b0 H
b0 I
1J
1M
1N
b10001000000000000000011110100 O
b10100011001000010100 P
0R
0S
b0 T
b0 U
b0 V
b0 `
b0 a
b1 b
b0 c
1d
b10001000000000000000011110011 e
b10001000000000000000000000000 f
b10100011001000010011 g
b0 h
0j
0k
b0 l
#260
0!
03
0D
0J
#265
1!
0$
0%
13
06
07
1D
1J
0M
0N
b0 Q
0R
0S
b0 T
b0 U
b0 V
1X
1Z
b0 [
b11110100 \
b10100011001000010100 ]
b0 `
b1 a
b10 b
b0 c
1d
b10001000000000000000011110100 e
b10001000000000000000000000000 f
b10100011001000010100 g
b0 h
0j
0k
b0 l
#270
0!
03
0D
0J
